\relax 
\@writefile{toc}{\contentsline {section}{\numberline {1}Conjunction $\land $ Rules}{1}{}\protected@file@percent }
\@writefile{toc}{\contentsline {subsection}{\numberline {1.1}$\land $ Elim}{1}{}\protected@file@percent }
\@writefile{toc}{\contentsline {subsection}{\numberline {1.2}$\land $ Intro}{1}{}\protected@file@percent }
\@writefile{toc}{\contentsline {section}{\numberline {2}Disjunction $\lor $ Rules}{1}{}\protected@file@percent }
\@writefile{toc}{\contentsline {subsection}{\numberline {2.1}$\lor $ Intro}{1}{}\protected@file@percent }
\@writefile{toc}{\contentsline {subsection}{\numberline {2.2}$\lor $ Elim}{1}{}\protected@file@percent }
\@writefile{toc}{\contentsline {section}{\numberline {3}Conditional $\DOTSB \tmspace  +\thickmuskip {.2777em}\DOTSB \Relbar \joinrel \Rightarrow \tmspace  +\thickmuskip {.2777em}$ Rules}{2}{}\protected@file@percent }
\@writefile{toc}{\contentsline {subsection}{\numberline {3.1}$\DOTSB \tmspace  +\thickmuskip {.2777em}\DOTSB \Relbar \joinrel \Rightarrow \tmspace  +\thickmuskip {.2777em}$ Elim (\textit  {modus ponens})}{2}{}\protected@file@percent }
\@writefile{toc}{\contentsline {subsection}{\numberline {3.2}$\DOTSB \tmspace  +\thickmuskip {.2777em}\DOTSB \Relbar \joinrel \Rightarrow \tmspace  +\thickmuskip {.2777em}$ Intro}{2}{}\protected@file@percent }
\@writefile{toc}{\contentsline {section}{\numberline {4}Biconditional $\leftrightarrow $ Rules}{2}{}\protected@file@percent }
\@writefile{toc}{\contentsline {subsection}{\numberline {4.1}$\leftrightarrow $ Intro}{2}{}\protected@file@percent }
\@writefile{toc}{\contentsline {subsection}{\numberline {4.2}$\leftrightarrow $ Elim}{2}{}\protected@file@percent }
\@writefile{toc}{\contentsline {section}{\numberline {5}Negation $\neg $ Rules}{2}{}\protected@file@percent }
\@writefile{toc}{\contentsline {subsection}{\numberline {5.1}$\neg $ Elim}{2}{}\protected@file@percent }
\@writefile{toc}{\contentsline {subsection}{\numberline {5.2}$\bot $ Intro}{2}{}\protected@file@percent }
\@writefile{toc}{\contentsline {subsection}{\numberline {5.3}$\neg $ Intro}{3}{}\protected@file@percent }
\@writefile{toc}{\contentsline {subsection}{\numberline {5.4}Explosions}{3}{}\protected@file@percent }
\@writefile{toc}{\contentsline {subsection}{\numberline {5.5}Tertium non datur}{3}{}\protected@file@percent }
\@writefile{toc}{\contentsline {section}{\numberline {6}Example Proofs}{3}{}\protected@file@percent }
\@writefile{toc}{\contentsline {subsection}{\numberline {6.1}Modus Tollens}{3}{}\protected@file@percent }
\@writefile{toc}{\contentsline {subsection}{\numberline {6.2}$A\land (B\DOTSB \tmspace  +\thickmuskip {.2777em}\DOTSB \Relbar \joinrel \Rightarrow \tmspace  +\thickmuskip {.2777em}A)\therefore \neg A\DOTSB \tmspace  +\thickmuskip {.2777em}\DOTSB \Relbar \joinrel \Rightarrow \tmspace  +\thickmuskip {.2777em}\neg B$}{4}{}\protected@file@percent }
\@writefile{toc}{\contentsline {section}{\numberline {7}Practice Exercises}{5}{}\protected@file@percent }
\gdef \@abspage@last{6}
