\relax 
\@writefile{toc}{\contentsline {section}{\numberline {1}Section I}{1}{}\protected@file@percent }
\@writefile{toc}{\contentsline {section}{\numberline {2}Section II}{2}{}\protected@file@percent }
\gdef \@abspage@last{2}
