\relax 
\@writefile{toc}{\contentsline {section}{\numberline {1}Conversion of Quantifiers}{1}{}\protected@file@percent }
\@writefile{toc}{\contentsline {section}{\numberline {2}Universal Elimination}{1}{}\protected@file@percent }
\@writefile{toc}{\contentsline {section}{\numberline {3}Existential Introduction}{1}{}\protected@file@percent }
\@writefile{toc}{\contentsline {section}{\numberline {4}Universal Introduction}{1}{}\protected@file@percent }
\@writefile{toc}{\contentsline {section}{\numberline {5}Existential Elimination}{1}{}\protected@file@percent }
\gdef \@abspage@last{2}
